…
    ## Parsed with column specification:
    ## cols(
    ##   year = col_double(),
    ##   region = col_character(),
    ##   causes = col_character(),
    ##   number = col_double()
    ## )

``` r
print(data)
```

    ## # A tibble: 216 x 4
    ##     year region           causes        number
    ##    <dbl> <chr>            <chr>          <dbl>
    ##  1  2015 Thousand Islands Electricity        1
    ##  2  2015 Thousand Islands Gas                0
    ##  3  2015 Thousand Islands Candle             0
    ##  4  2015 Thousand Islands Burning Trash      0
    ##  5  2015 Thousand Islands Cigarette          0
    ##  6  2015 Thousand Islands Others             7
    ##  7  2015 South Jakarta    Electricity      221
    ##  8  2015 South Jakarta    Gas               22
    ##  9  2015 South Jakarta    Candle             0
    ## 10  2015 South Jakarta    Burning Trash      0
    ## # ... with 206 more rows
…
