…
    ## Parsed with column specification:
    ## cols(
    ##   tahun = col_double(),
    ##   wilayah = col_character(),
    ##   penyebab = col_character(),
    ##   jumlah = col_double()
    ## )

``` r
print(data)
```

    ## # A tibble: 216 x 4
    ##    tahun wilayah          penyebab        jumlah
    ##    <dbl> <chr>            <chr>            <dbl>
    ##  1  2015 Kepulauan Seribu Listrik              1
    ##  2  2015 Kepulauan Seribu Gas                  0
    ##  3  2015 Kepulauan Seribu Lilin                0
    ##  4  2015 Kepulauan Seribu Membakar Sampah      0
    ##  5  2015 Kepulauan Seribu Rokok                0
    ##  6  2015 Kepulauan Seribu Lainnya              7
    ##  7  2015 Jakarta Selatan  Listrik            221
    ##  8  2015 Jakarta Selatan  Gas                 22
    ##  9  2015 Jakarta Selatan  Lilin                0
    ## 10  2015 Jakarta Selatan  Membakar Sampah      0
    ## # ... with 206 more rows
…
## 3. Mengubah Jenis Data

Pada saat *import data*, data pada kolom ‘tahun’ dan ‘jumlah’ berjenis
*double*, kolom ‘wilayah ’dan ’penyebab’ berjenis *character*. Untuk
analisis lebih lanjut, kolom ‘tahun’, ‘wilayah’, dan ‘penyebab’ akan
diubah menjadi kategori (*factor*).

``` r
data$tahun <- as.factor(data$tahun)
data$wilayah <- as.factor(data$wilayah)
data$penyebab <- as.factor(data$penyebab)
print(data)
```

    ## # A tibble: 216 x 4
    ##    tahun wilayah          penyebab        jumlah
    ##    <fct> <fct>            <fct>            <dbl>
    ##  1 2015  Kepulauan Seribu Listrik              1
    ##  2 2015  Kepulauan Seribu Gas                  0
    ##  3 2015  Kepulauan Seribu Lilin                0
    ##  4 2015  Kepulauan Seribu Membakar Sampah      0
    ##  5 2015  Kepulauan Seribu Rokok                0
    ##  6 2015  Kepulauan Seribu Lainnya              7
    ##  7 2015  Jakarta Selatan  Listrik            221
    ##  8 2015  Jakarta Selatan  Gas                 22
    ##  9 2015  Jakarta Selatan  Lilin                0
    ## 10 2015  Jakarta Selatan  Membakar Sampah      0
    ## # ... with 206 more rows
…
